[Wed Sep 05 17:30:15.141131 2018] [:error] [pid 11725] [client 127.0.0.1:36960] PHP Fatal error:  Call to undefined function base_url() in /home/eduavila/public_html/tupersonal.local/application/views/welcome_message.php on line 9
[Wed Sep 05 17:30:54.299771 2018] [:error] [pid 11729] [client 127.0.0.1:37120] PHP Fatal error:  Call to undefined function base_url() in /home/eduavila/public_html/tupersonal.local/application/views/welcome_message.php on line 9
[Wed Sep 05 17:30:55.112353 2018] [:error] [pid 11731] [client 127.0.0.1:37122] PHP Fatal error:  Call to undefined function base_url() in /home/eduavila/public_html/tupersonal.local/application/views/welcome_message.php on line 9
[Wed Sep 05 17:33:11.092279 2018] [:error] [pid 11726] [client 127.0.0.1:37124] PHP Fatal error:  Call to undefined function base_url() in /home/eduavila/public_html/tupersonal.local/application/views/home.php on line 9
